Ray:

wangpeng@dacent:~/tools/3d/19/Ray/build/tests$ ./test_Ray
Test simd_fvec4 native? = 0 | OK
Test simd_ivec4 native? = 0 | OK
Test simd_fvec8 native? = 0 | OK
Test simd_ivec8 native? = 0 | OK
Test simd_fvec4 native? = 1 | OK
Test simd_ivec4 native? = 1 | OK
Test simd_fvec8 native? = 0 | OK
Test simd_ivec8 native? = 0 | OK
Test simd_fvec4 native? = 1 | OK
Test simd_ivec4 native? = 1 | OK
Test simd_fvec8 native? = 1 | OK
Test simd_ivec8 native? = 1 | OK
Test simd_fvec4 native? = 1 | OK
Test simd_ivec4 native? = 1 | OK
Test simd_fvec8 native? = 1 | OK
Test simd_ivec8 native? = 1 | OK
Skipping OpenCL test
Ray: Creating Ref renderer 64x64
0%
10%
20%
30%
40%
50%
60%
70%
80%
90%
100%
Error: 0.824788
Ray: Creating SSE2 renderer 64x64
0%
10%
20%
30%
40%
50%
60%
70%
80%
90%
100%
Error: 0.824788
Ray: Creating AVX renderer 64x64
0%
10%
20%
30%
40%
50%
60%
70%
80%
90%
100%
Error: 0.824788
Ray: Creating AVX2 renderer 64x64
0%
10%
20%
30%
40%
50%
60%
70%
80%
90%
100%
Error: 0.824788
Ray: Creating Ref renderer 64x64
0%
10%
20%
30%
40%
50%
60%
70%
80%
90%
100%
Error: 0.850911
Ray: Creating SSE2 renderer 64x64
0%
10%
20%
30%
40%
50%
60%
70%
80%
90%
100%
Error: 0.850749
Ray: Creating AVX renderer 64x64
0%
10%
20%
30%
40%
50%
60%
70%
80%
90%
100%
Error: 0.850749
Ray: Creating AVX2 renderer 64x64
0%
10%
20%
30%
40%
50%
60%
70%
80%
90%
100%
Error: 0.850749
Ray: Creating Ref renderer 64x64
0%
10%
20%
30%
40%
50%
60%
70%
80%
90%
100%
Error: 0.824788
Ray: Creating SSE2 renderer 64x64
0%
10%
20%
30%
40%
50%
60%
70%
80%
90%
100%
Error: 0.824788
Ray: Creating AVX renderer 64x64
0%
10%
20%
30%
40%
50%
60%
70%
80%
90%
100%
Error: 0.824788
Ray: Creating AVX2 renderer 64x64
0%
10%
20%
30%
40%
50%
60%
70%
80%
90%
100%
Error: 0.824788
Ray: Creating Ref renderer 64x64
0%
10%
20%
30%
40%
50%
60%
70%
80%
90%
100%
Error: 0.850911
Ray: Creating SSE2 renderer 64x64
0%
10%
20%
30%
40%
50%
60%
70%
80%
90%
100%
Error: 0.850749
Ray: Creating AVX renderer 64x64
0%
10%
20%
30%
40%
50%
60%
70%
80%
90%
100%
Error: 0.850749
Ray: Creating AVX2 renderer 64x64
0%
10%
20%
30%
40%
50%
60%
70%
80%
90%
100%
Error: 0.850749
Ray: Creating Ref renderer 256x256
0%
10%
20%
30%
40%
50%
60%
70%
80%
90%
100%
Error: 0.001480
Ray: Creating SSE2 renderer 256x256
0%
10%
20%
30%
40%
50%
60%
70%
80%
90%
100%
Error: 0.001420
Ray: Creating AVX renderer 256x256
0%
10%
20%
30%
40%
50%
60%
70%
80%
90%
100%
Error: 0.001420
Ray: Creating AVX2 renderer 256x256
0%
10%
20%
30%
40%
50%
60%
70%
80%
90%
100%
Error: 0.001420
Ray: Creating Ref renderer 256x256
0%
10%
20%
30%
40%
50%
60%
70%
80%
90%
100%
Error: 0.001480
Ray: Creating SSE2 renderer 256x256
0%
10%
20%
30%
40%
50%
60%
70%
80%
90%
100%
Error: 0.001420
Ray: Creating AVX renderer 256x256
0%
10%
20%
30%
40%
50%
60%
70%
80%
90%
100%
Error: 0.001420
Ray: Creating AVX2 renderer 256x256
0%
10%
20%
30%
40%
50%
60%
70%
80%
90%

