
compiling is ok

raytracing

RUN:

wangpeng@dacent:~/tools/3d/69/3D-RayTracer$ ./render samplecube.txt
finished parse
0: 20 , 20 , 20
1: 20 , 80 , 20
2: 80 , 20 , 20
3: 80 , 80 , 20
4: 80 , 20 , 80
5: 80 , 80 , 80
6: 20 , 20 , 80
7: 20 , 80 , 80
---------------------
0 , 1 , 2
1 , 3 , 2
2 , 3 , 4
3 , 5 , 4
5 , 4 , 6
6 , 7 , 5
7 , 6 , 0
0 , 1 , 7
0 , 2 , 4
0 , 4 , 6
1 , 3 , 7
3 , 7 , 5
END


WEBSITE:


1 https://github.com/rwatk001/3D-RayTracer.git
