Reading config file ...
Measuring ILP characteristics...
interval size: full
Returning data for full execution...
ILP window size: 32
page size: 2^12
block size: 2^6
ITYPES spec file: itypes_default.spec
append pid: yes
All done reading config
